Gabarito - Webinar 1 - EDA
…
Explorando os dados do IMDb

Agora vamos iniciar a análise dos dados do IMDB. Primeiro vamos
contabilizar o número de capítulos por seriado e vamos ordenar usando a
função arrange

imdb %>% 
  group_by(series_name) %>% 
  count() %>% 
  arrange(desc(n))

## # A tibble: 27 × 2
## # Groups:   series_name [27]
##    series_name                    n
##    <chr>                      <int>
##  1 Arquivo X                    356
##  2 Era Uma Vez                  312
##  3 The Walking Dead             288
##  4 Friends                      235
##  5 Sobrenatural                 211
##  6 Os Originais                 184
##  7 Como Defender um Assassino   180
##  8 Grimm: Contos de Terror      123
##  9 Orange Is the New Black       91
## 10 Lúcifer                       75
## # … with 17 more rows

Claramente têm seriados com muitos capítulos e outros com poucos,
pode ser por causa do número de temporadas? vamos conferir:

imdb %>% 
  group_by(series_name, season) %>% 
  count() %>% 
  ungroup() %>% 
  group_by(series_name) %>% 
  top_n(1, wt = season) %>% 
  arrange(desc(season))

## # A tibble: 27 × 3
## # Groups:   series_name [27]
##    series_name                season     n
##    <chr>                       <dbl> <int>
##  1 Sobrenatural                   15    30
##  2 Arquivo X                      11    40
##  3 Friends                        10    17
##  4 The Walking Dead               10    64
##  5 Era Uma Vez                     7    44
##  6 Orange Is the New Black         7    13
##  7 Como Defender um Assassino      6    30
##  8 Grimm: Contos de Terror         6    13
##  9 Greenleaf                       5     8
## 10 Lúcifer                         5     8
## # … with 17 more rows
…
Quais são as séries com as avaliações mais altas e baixas em
média?

imdb_rating <- imdb %>% 
  group_by(series_name) %>% 
  summarize(media = mean(UserRating)) %>% 
  arrange(desc(media)) 

imdb_rating

## # A tibble: 27 × 2
##    series_name                media
##    <chr>                      <dbl>
##  1 Dark                        9.08
##  2 Os Originais                8.83
##  3 Sherlock                    8.8 
##  4 Narcos                      8.76
##  5 Lúcifer                     8.74
##  6 Stranger Things             8.68
##  7 Motel Bates                 8.59
##  8 Como Defender um Assassino  8.57
##  9 Orphan Black                8.53
## 10 The Witcher                 8.49
## # … with 17 more rows
Se compararmos estes resultados com os obtidos acima, referentes aos
seriados mais assistidos no Netflix (“Greenleaf”, “How to get away with
murder”, “Once upon a Time”, “Away”, “Bates Motel”, “Dark”, “Money
Heist” e “Ratched”), há alguma relação entre a média de avaliação e o
número de capítulos assistidos?

series_mais_assistidas_total <- netflix_series_limpo %>% 
  group_by(series_title) %>% 
  count()

series_mais_assistidas_com_rating <- imdb_rating %>% 
  left_join(series_mais_assistidas_total, by=c("series_name"="series_title"))
series_mais_assistidas_com_rating

## # A tibble: 27 × 3
##    series_name                media     n
##    <chr>                      <dbl> <int>
##  1 Dark                        9.08    26
##  2 Os Originais                8.83    NA
##  3 Sherlock                    8.8     NA
##  4 Narcos                      8.76    19
##  5 Lúcifer                     8.74    NA
##  6 Stranger Things             8.68    25
##  7 Motel Bates                 8.59    NA
##  8 Como Defender um Assassino  8.57    NA
##  9 Orphan Black                8.53    22
## 10 The Witcher                 8.49     8
## # … with 17 more rows
…
