Tarefa 1 - Vendas de Legos
…
A partir dos dados acima, responda as seguintes perguntas utilizando
os comandos aprendidos em aula. Para cada pergunta, escreva a sua
resposta em uma frase, por exemplo: “Os três nomes mais comuns de
compradores são…”.

Quais são os dez nomes (first_name) mais comuns de
compradores?

lego_sales %>% 
  group_by(first_name) %>% 
  summarize(n=n()) %>% 
  arrange(desc(n))

## # A tibble: 211 × 2
##    first_name     n
##    <chr>      <int>
##  1 Keyana        22
##  2 Seth          22
##  3 Daianaira     20
##  4 Jackson       13
##  5 Jacob         11
##  6 Joseph        11
##  7 Michael       10
##  8 Audrey         8
##  9 Connor         8
## 10 Kaitlyn        8
## # … with 201 more rows

Desta lista, informe no moodle o nome do 4o (quarto)
comprador mais frequente.

Quais foram os dez temas dos conjuntos de lego mais comprados? Dica:
use a coluna quantity. Mostre em formato de tabela.

lego_sales %>% 
  group_by(theme) %>% 
  summarize(n=n(),
            q=sum(quantity)) %>% 
  arrange(desc(q))

## # A tibble: 25 × 3
##    theme                       n     q
##    <chr>                   <int> <dbl>
##  1 Star Wars                  75   117
##  2 Nexo Knights               64    93
##  3 Mixels                     55    83
##  4 Gear                       55    79
##  5 City                       45    65
##  6 Ninjago                    38    59
##  7 Collectable Minifigures    57    57
##  8 Friends                    42    56
##  9 Duplo                      35    50
## 10 Bionicle                   34    46
## # … with 15 more rows
…
