Tutorial 2 - Ggplot e Tidyverse
…
Vamos aplicar tudo o aprendido num segundo exemplo, usando o
dataframe imdb para mostrar os seriados com maior número de
votos UserVotes.

imdb %>% 
  group_by(series_name) %>% 
  summarize(Votos = sum(UserVotes)) %>% 
  arrange(desc(Votos)) #adicionar ggplot

## # A tibble: 27 × 2
##    series_name                  Votos
##    <chr>                        <dbl>
##  1 The Walking Dead           2394586
##  2 Arquivo X                   969628
##  3 Friends                     853287
##  4 Sobrenatural                499046
##  5 Era Uma Vez                 397332
##  6 Stranger Things             391288
##  7 Sherlock                    373114
##  8 Lúcifer                     298412
##  9 Dark                        264631
## 10 Como Defender um Assassino  228352
## # … with 17 more rows
…
Gráfico de linha

Exemplo Base

Vamos fazer um gráfico de linha usando a função
geom_line() como camada do ggplot usando o
dataset netflix_filmes para mostrar o total de capítulos
assistidos por dia.

netflix_filmes %>%  #colocar código ggplot
  group_by(Date) %>% 
  summarize(filmes=n())

## # A tibble: 114 × 2
##    Date       filmes
##    <date>      <int>
##  1 2015-08-24      2
##  2 2015-10-12      1
##  3 2015-11-16      1
##  4 2015-12-23      1
##  5 2016-01-17      2
##  6 2016-01-31      1
##  7 2016-12-29      1
##  8 2017-01-29      1
##  9 2017-03-05      2
## 10 2017-03-12      1
## # … with 104 more rows

Podemos agrupar contagens usando a função floor_date do
pacote lubridate para meses, trimestres, etc.
Adicionalmente, podemos incluir cores.

netflix_filmes %>% 
  count(mes = lubridate::floor_date(Date, "month"))

## # A tibble: 48 × 2
##    mes            n
##    <date>     <int>
##  1 2015-08-01     2
##  2 2015-10-01     1
##  3 2015-11-01     1
##  4 2015-12-01     1
##  5 2016-01-01     3
##  6 2016-12-01     1
##  7 2017-01-01     1
##  8 2017-03-01     3
##  9 2017-05-01     1
## 10 2017-06-01     8
## # … with 38 more rows
…
imdb_filmes %>% 
  mutate(lucro = receita - orcamento,
         lucro_factor = ifelse(lucro > 0, "Sim","Não")) %>% 
  filter(!is.na(lucro)) %>% 
  group_by(lucro_factor,ano) %>% 
  summarise(nota_media=mean(nota_imdb,na.rm=TRUE))

## `summarise()` has grouped output by 'lucro_factor'. You can override using the
## `.groups` argument.

## # A tibble: 169 × 3
## # Groups:   lucro_factor [2]
##    lucro_factor   ano nota_media
##    <chr>        <dbl>      <dbl>
##  1 Não           1921       8.3 
##  2 Não           1923       7   
##  3 Não           1925       8.2 
##  4 Não           1927       7.8 
##  5 Não           1928       8.1 
##  6 Não           1931       7.85
##  7 Não           1932       7.9 
##  8 Não           1933       7.65
##  9 Não           1934       7.55
## 10 Não           1935       7.3 
## # … with 159 more rows
…
Exemplo Base

Boxplots servem para comparar a distribuição dos dados em diferentes
categorias. Vamos usar os dados do dataset imdb para
comparar as notas de UserRating em cada temporada do
seriado The Walking Dead.

seriado_escolhido <- "The Walking Dead"

imdb %>% 
  filter(series_name == seriado_escolhido) %>% 
  select(1,2,4,7) 

## # A tibble: 288 × 4
##    series_name      Episode                     season UserRating
##    <chr>            <chr>                        <dbl>      <dbl>
##  1 The Walking Dead Seed                             3        8.9
##  2 The Walking Dead Sick                             3        8.6
##  3 The Walking Dead Walk with Me                     3        8.2
##  4 The Walking Dead Killer Within                    3        9.3
##  5 The Walking Dead Say the Word                     3        8.2
##  6 The Walking Dead Hounded                          3        8.3
##  7 The Walking Dead When the Dead Come Knocking      3        8.6
##  8 The Walking Dead Made to Suffer                   3        9  
##  9 The Walking Dead The Suicide King                 3        8.2
## 10 The Walking Dead Home                             3        8.7
## # … with 278 more rows

Adicionando cores por meio de paletas pré-definidas

Vamos adicionar cores para cada temporada, para isto precisamos
incluir o argumento fill dentro da camada de estetica
aes. Podemos também escolher as cores de paletas
pré-definidas como: scale_fill_viridis_d() e
scale_fill_brewer()

imdb %>% 
  filter(series_name == seriado_escolhido) %>% 
  select(1,2,4,7) 

## # A tibble: 288 × 4
##    series_name      Episode                     season UserRating
##    <chr>            <chr>                        <dbl>      <dbl>
##  1 The Walking Dead Seed                             3        8.9
##  2 The Walking Dead Sick                             3        8.6
##  3 The Walking Dead Walk with Me                     3        8.2
##  4 The Walking Dead Killer Within                    3        9.3
##  5 The Walking Dead Say the Word                     3        8.2
##  6 The Walking Dead Hounded                          3        8.3
##  7 The Walking Dead When the Dead Come Knocking      3        8.6
##  8 The Walking Dead Made to Suffer                   3        9  
##  9 The Walking Dead The Suicide King                 3        8.2
## 10 The Walking Dead Home                             3        8.7
## # … with 278 more rows
…
Exemplo Base

Vamos continuar com os dados sobre UserRating usados
anteriormente para graficar Boxplots. Neste caso, vamos graficar a
distribuição do UserRating considerando apenas a contagem.
Podemos usar o argumento bins ou binwidth para
ajustar melhor o resultado.

imdb %>% 
  filter(series_name == seriado_escolhido) %>% 
  select(1,2,4,7) 

## # A tibble: 288 × 4
##    series_name      Episode                     season UserRating
##    <chr>            <chr>                        <dbl>      <dbl>
##  1 The Walking Dead Seed                             3        8.9
##  2 The Walking Dead Sick                             3        8.6
##  3 The Walking Dead Walk with Me                     3        8.2
##  4 The Walking Dead Killer Within                    3        9.3
##  5 The Walking Dead Say the Word                     3        8.2
##  6 The Walking Dead Hounded                          3        8.3
##  7 The Walking Dead When the Dead Come Knocking      3        8.6
##  8 The Walking Dead Made to Suffer                   3        9  
##  9 The Walking Dead The Suicide King                 3        8.2
## 10 The Walking Dead Home                             3        8.7
## # … with 278 more rows

Agora, vamos usar o dataset imdb_filmes para verificar
quão lucrativo é um determinado genero.

genero_escolhido <- "Comedy"

imdb_filmes %>% 
  #filter(str_detect(string = generos, pattern = genero_escolhido)) %>% 
  filter(generos == genero_escolhido) %>% 
  mutate(lucro = receita - orcamento)

## # A tibble: 560 × 21
##    id_filme  titulo   ano data_lancamento generos duracao pais  idioma orcamento
##    <chr>     <chr>  <dbl> <chr>           <chr>     <dbl> <chr> <chr>      <dbl>
##  1 tt0183505 Me, M…  2000 2000-09-08      Comedy      116 USA   Engli…  51000000
##  2 tt1242423 Dear …  2009 2011-07-01      Comedy       87 USA   Engli…        NA
##  3 tt0120434 Vegas…  1997 1997-02-14      Comedy       93 USA   Engli…  25000000
##  4 tt5617916 Airpl…  2019 2019-08-02      Comedy       80 USA   Engli…        NA
##  5 tt7054636 A Mad…  2019 2019-03-01      Comedy      109 USA   Engli…  20000000
##  6 tt0460925 The S…  2006 2006-01-01      Comedy       86 USA   Engli…        NA
##  7 tt0071514 For P…  1974 1974-09-13      Comedy       90 USA   Engli…        NA
##  8 tt0064683 Mondo…  1969 1969-03-14      Comedy       95 USA   Engli…      2100
##  9 tt1073498 Meet …  2008 2008-04-24      Comedy       87 USA   Engli…  30000000
## 10 tt0489085 I-See…  2006 2006-03-08      Comedy       92 USA   Engli…   6200000
## # … with 550 more rows, and 12 more variables: receita <dbl>,
## #   receita_eua <dbl>, nota_imdb <dbl>, num_avaliacoes <dbl>, direcao <chr>,
## #   roteiro <chr>, producao <chr>, elenco <chr>, descricao <chr>,
## #   num_criticas_publico <dbl>, num_criticas_critica <dbl>, lucro <dbl>

Adicionando cores

Podemos melhorar a apresentação, escolhendo cores diferentes
adicionando o argumento fill dentro de
geom_histogram().

imdb_filmes %>% 
  #filter(str_detect(string = generos, pattern = genero_escolhido)) %>% 
  filter(generos == genero_escolhido) %>% 
  mutate(lucro = receita - orcamento) 

## # A tibble: 560 × 21
##    id_filme  titulo   ano data_lancamento generos duracao pais  idioma orcamento
##    <chr>     <chr>  <dbl> <chr>           <chr>     <dbl> <chr> <chr>      <dbl>
##  1 tt0183505 Me, M…  2000 2000-09-08      Comedy      116 USA   Engli…  51000000
##  2 tt1242423 Dear …  2009 2011-07-01      Comedy       87 USA   Engli…        NA
##  3 tt0120434 Vegas…  1997 1997-02-14      Comedy       93 USA   Engli…  25000000
##  4 tt5617916 Airpl…  2019 2019-08-02      Comedy       80 USA   Engli…        NA
##  5 tt7054636 A Mad…  2019 2019-03-01      Comedy      109 USA   Engli…  20000000
##  6 tt0460925 The S…  2006 2006-01-01      Comedy       86 USA   Engli…        NA
##  7 tt0071514 For P…  1974 1974-09-13      Comedy       90 USA   Engli…        NA
##  8 tt0064683 Mondo…  1969 1969-03-14      Comedy       95 USA   Engli…      2100
##  9 tt1073498 Meet …  2008 2008-04-24      Comedy       87 USA   Engli…  30000000
## 10 tt0489085 I-See…  2006 2006-03-08      Comedy       92 USA   Engli…   6200000
## # … with 550 more rows, and 12 more variables: receita <dbl>,
## #   receita_eua <dbl>, nota_imdb <dbl>, num_avaliacoes <dbl>, direcao <chr>,
## #   roteiro <chr>, producao <chr>, elenco <chr>, descricao <chr>,
## #   num_criticas_publico <dbl>, num_criticas_critica <dbl>, lucro <dbl>

Você pode ver mais exemplos do Histogramas e Boxplots no Cap. 8 do
livro Curso-R

Podemos usar alternativamente um outro tipo de visualização muito
similar, que é a geom_density(). Vamos usar os mesmos
exemplos anteriores.

imdb %>% 
  filter(series_name == seriado_escolhido) %>% 
  select(1,2,4,7)

## # A tibble: 288 × 4
##    series_name      Episode                     season UserRating
##    <chr>            <chr>                        <dbl>      <dbl>
##  1 The Walking Dead Seed                             3        8.9
##  2 The Walking Dead Sick                             3        8.6
##  3 The Walking Dead Walk with Me                     3        8.2
##  4 The Walking Dead Killer Within                    3        9.3
##  5 The Walking Dead Say the Word                     3        8.2
##  6 The Walking Dead Hounded                          3        8.3
##  7 The Walking Dead When the Dead Come Knocking      3        8.6
##  8 The Walking Dead Made to Suffer                   3        9  
##  9 The Walking Dead The Suicide King                 3        8.2
## 10 The Walking Dead Home                             3        8.7
## # … with 278 more rows

Podemos também customizar a cor da linha e da área abaixo da
densidade usando os argumentos fill e color
dentro do geom_density() bem como a transparência usando
alpha.

imdb_filmes %>% 
  #filter(str_detect(string = generos, pattern = genero_escolhido)) %>% 
  filter(generos == genero_escolhido) %>% 
  mutate(lucro = receita - orcamento)

## # A tibble: 560 × 21
##    id_filme  titulo   ano data_lancamento generos duracao pais  idioma orcamento
##    <chr>     <chr>  <dbl> <chr>           <chr>     <dbl> <chr> <chr>      <dbl>
##  1 tt0183505 Me, M…  2000 2000-09-08      Comedy      116 USA   Engli…  51000000
##  2 tt1242423 Dear …  2009 2011-07-01      Comedy       87 USA   Engli…        NA
##  3 tt0120434 Vegas…  1997 1997-02-14      Comedy       93 USA   Engli…  25000000
##  4 tt5617916 Airpl…  2019 2019-08-02      Comedy       80 USA   Engli…        NA
##  5 tt7054636 A Mad…  2019 2019-03-01      Comedy      109 USA   Engli…  20000000
##  6 tt0460925 The S…  2006 2006-01-01      Comedy       86 USA   Engli…        NA
##  7 tt0071514 For P…  1974 1974-09-13      Comedy       90 USA   Engli…        NA
##  8 tt0064683 Mondo…  1969 1969-03-14      Comedy       95 USA   Engli…      2100
##  9 tt1073498 Meet …  2008 2008-04-24      Comedy       87 USA   Engli…  30000000
## 10 tt0489085 I-See…  2006 2006-03-08      Comedy       92 USA   Engli…   6200000
## # … with 550 more rows, and 12 more variables: receita <dbl>,
## #   receita_eua <dbl>, nota_imdb <dbl>, num_avaliacoes <dbl>, direcao <chr>,
## #   roteiro <chr>, producao <chr>, elenco <chr>, descricao <chr>,
## #   num_criticas_publico <dbl>, num_criticas_critica <dbl>, lucro <dbl>

E por fim, podemos comparar duas ou mais categorias. Vamos fazer
isso, comparando os generos “Comedy” e “Drama” para saber se há
diferenças significativas em termos de lucro. Para isto, vamos incluir o
argumento group dentro da camada aes além de
fill e color. Adicionalmente podemos incluir
alpha dentro de geom_density().

imdb_filmes %>% 
  #filter(str_detect(string = generos, pattern = genero_escolhido)) %>% 
  filter(generos %in% c("Comedy","Drama")) %>% 
  mutate(lucro = receita - orcamento)

## # A tibble: 1,188 × 21
##    id_filme  titulo   ano data_lancamento generos duracao pais  idioma orcamento
##    <chr>     <chr>  <dbl> <chr>           <chr>     <dbl> <chr> <chr>      <dbl>
##  1 tt0183505 Me, M…  2000 2000-09-08      Comedy      116 USA   Engli…  51000000
##  2 tt3703836 Henry…  2015 2016-01-08      Drama        87 USA   Engli…        NA
##  3 tt1142798 The F…  2008 2008-09-12      Drama       111 USA   Engli…        NA
##  4 tt1242423 Dear …  2009 2011-07-01      Comedy       87 USA   Engli…        NA
##  5 tt0109514 Curse…  1994 1995-05-05      Drama       102 USA   Engli…  12577385
##  6 tt0120434 Vegas…  1997 1997-02-14      Comedy       93 USA   Engli…  25000000
##  7 tt0068528 The E…  1972 1973-05-30      Drama       100 USA   Engli…        NA
##  8 tt5617916 Airpl…  2019 2019-08-02      Comedy       80 USA   Engli…        NA
##  9 tt0049800 Storm…  1956 1956-07-31      Drama        85 USA   Engli…        NA
## 10 tt7054636 A Mad…  2019 2019-03-01      Comedy      109 USA   Engli…  20000000
## # … with 1,178 more rows, and 12 more variables: receita <dbl>,
## #   receita_eua <dbl>, nota_imdb <dbl>, num_avaliacoes <dbl>, direcao <chr>,
## #   roteiro <chr>, producao <chr>, elenco <chr>, descricao <chr>,
## #   num_criticas_publico <dbl>, num_criticas_critica <dbl>, lucro <dbl>
…
